[
  {
    "brand": "SONY",
    "type": "Joystick",
    "forConsole": "Playstation 4",
    "id": "SpsCt",
    "productName": "Dualshock Controller",
    "price": 30.0,
    "description": "Official Sony Controller for Playstation 4",
    "quantity": "10"
  },
  {
    "brand": "Creation",
    "type": "Case",
    "forConsole": "Nintendo Switch",
    "id": "NSCcc",
    "productName": "Nintendo Switch protector case",
    "price": 15.50,
    "description": "Case for transport and protection for Nintendo Switch",
    "quantity": "50"
  }

]
